{
  "skeleton": {
    "hash": "Aez8QXRWnXR0FDmpXFh0E+ylIoI",
    "spine": "3.7.94",
    "width": 131.6,
    "height": 134.4,
    "images": "./library/",
    "audio": "G:/Rostislaw/FruitlSlot/projects/projectOrange/exportDB"
  },
  "bones": [
    { "name": "root" },
    {
      "name": "scale",
      "parent": "root",
      "length": 93,
      "scaleX": 0.4,
      "scaleY": 0.4
    },
    {
      "name": "fire",
      "parent": "scale",
      "length": 202,
      "rotation": 124.46,
      "x": 42.06,
      "y": -169.79,
      "scaleX": 1.4,
      "scaleY": 1.4,
      "shearY": -180
    },
    {
      "name": "leaf2",
      "parent": "scale",
      "length": 51,
      "rotation": 47.66,
      "x": 54.2,
      "y": 70.95
    },
    {
      "name": "star1",
      "parent": "scale",
      "length": 60,
      "rotation": 0.47,
      "x": 94.4,
      "y": 47.75,
      "scaleX": 0.01,
      "scaleY": 0.01,
      "transform": "noRotationOrReflection"
    },
    {
      "name": "star2",
      "parent": "scale",
      "length": 60,
      "rotation": 0.47,
      "x": 23.93,
      "y": 42.16,
      "scaleX": 0.01,
      "scaleY": 0.01,
      "transform": "noRotationOrReflection"
    },
    {
      "name": "leaf",
      "parent": "leaf2",
      "length": 106,
      "rotation": 125.15,
      "x": 26.6,
      "y": 8.82
    },
    {
      "name": "leaf1",
      "parent": "leaf",
      "length": 115,
      "rotation": 27.43,
      "x": 104.55,
      "y": -0.22
    }
  ],
  "slots": [
    { "name": "shadow", "bone": "scale", "attachment": "orange/shadow" },
    { "name": "orange", "bone": "scale", "attachment": "orange/orange" },
    { "name": "fire", "bone": "fire" },
    { "name": "leaf", "bone": "leaf2", "attachment": "orange/leaf" },
    {
      "name": "star1",
      "bone": "star1",
      "attachment": "star1",
      "blend": "additive"
    },
    {
      "name": "star11",
      "bone": "star2",
      "attachment": "star1",
      "blend": "additive"
    }
  ],
  "skins": {
    "default": {
      "fire": {
        "fireAnim_01/fire_01": {
          "x": 36.55,
          "y": 17.67,
          "rotation": -44.63,
          "width": 171,
          "height": 107
        },
        "fireAnim_01/fire_03": {
          "x": 37.25,
          "y": 18.38,
          "rotation": -44.63,
          "width": 175,
          "height": 115
        },
        "fireAnim_01/fire_05": {
          "x": 42.61,
          "y": 9.57,
          "rotation": -44.63,
          "width": 199,
          "height": 124
        },
        "fireAnim_01/fire_07": {
          "x": 55.4,
          "y": 1.17,
          "rotation": -44.63,
          "width": 233,
          "height": 148
        },
        "fireAnim_01/fire_09": {
          "x": 62.51,
          "y": -5.15,
          "rotation": -44.63,
          "width": 252,
          "height": 149
        },
        "fireAnim_01/fire_11": {
          "x": 72.01,
          "y": 1.63,
          "rotation": -44.63,
          "width": 258,
          "height": 170
        },
        "fireAnim_01/fire_13": {
          "x": 80.45,
          "y": 8.05,
          "rotation": -44.63,
          "width": 259,
          "height": 191
        },
        "fireAnim_01/fire_15": {
          "x": 81.88,
          "y": 6.65,
          "rotation": -44.63,
          "width": 261,
          "height": 193
        },
        "fireAnim_01/fire_17": {
          "x": 84.35,
          "y": 7.01,
          "rotation": -44.63,
          "width": 262,
          "height": 195
        },
        "fireAnim_01/fire_19": {
          "x": 102.63,
          "y": 23.4,
          "rotation": -44.63,
          "width": 263,
          "height": 242
        },
        "fireAnim_01/fire_21": {
          "x": 109.34,
          "y": 23.79,
          "rotation": -44.63,
          "width": 264,
          "height": 250
        },
        "fireAnim_01/fire_23": {
          "x": 103.04,
          "y": 15.27,
          "rotation": -44.63,
          "width": 263,
          "height": 227
        },
        "fireAnim_01/fire_25": {
          "x": 106.2,
          "y": 17.76,
          "rotation": -44.63,
          "width": 268,
          "height": 235
        },
        "fireAnim_01/fire_27": {
          "x": 105.14,
          "y": 17.4,
          "rotation": -44.63,
          "width": 273,
          "height": 233
        },
        "fireAnim_01/fire_29": {
          "x": 107.24,
          "y": 20.95,
          "rotation": -44.63,
          "width": 279,
          "height": 241
        },
        "fireAnim_01/fire_31": {
          "x": 108.98,
          "y": 25.56,
          "rotation": -44.63,
          "width": 285,
          "height": 250
        },
        "fireAnim_01/fire_33": {
          "x": 115.35,
          "y": 24.19,
          "rotation": -44.63,
          "width": 274,
          "height": 259
        },
        "fireAnim_01/fire_35": {
          "x": 119.24,
          "y": 23.86,
          "rotation": -44.63,
          "width": 268,
          "height": 266
        },
        "fireAnim_01/fire_37": {
          "x": 120.99,
          "y": 27.05,
          "rotation": -44.63,
          "width": 266,
          "height": 273
        },
        "fireAnim_01/fire_39": {
          "x": 122.03,
          "y": 30.95,
          "rotation": -44.63,
          "width": 268,
          "height": 280
        },
        "fireAnim_01/fire_41": {
          "x": 123.78,
          "y": 33.43,
          "rotation": -44.63,
          "width": 275,
          "height": 282
        },
        "fireAnim_01/fire_43": {
          "x": 112.9,
          "y": 20.99,
          "rotation": -44.63,
          "width": 283,
          "height": 249
        },
        "fireAnim_01/fire_45": {
          "x": 115.71,
          "y": 23.13,
          "rotation": -44.63,
          "width": 290,
          "height": 254
        },
        "fireAnim_01/fire_47": {
          "x": 122.85,
          "y": 12.57,
          "rotation": -44.63,
          "width": 273,
          "height": 245
        },
        "fireAnim_01/fire_49": {
          "x": 128.12,
          "y": 17.9,
          "rotation": -44.63,
          "width": 279,
          "height": 244
        },
        "fireAnim_01/fire_51": {
          "x": 118.13,
          "y": 31.98,
          "rotation": -44.63,
          "width": 251,
          "height": 250
        },
        "fireAnim_01/fire_53": {
          "x": 104.77,
          "y": 20.58,
          "rotation": -44.63,
          "width": 258,
          "height": 217
        },
        "fireAnim_01/fire_55": {
          "x": 104.76,
          "y": 22,
          "rotation": -44.63,
          "width": 264,
          "height": 221
        },
        "fireAnim_01/fire_57": {
          "x": 106.87,
          "y": 24.13,
          "rotation": -44.63,
          "width": 270,
          "height": 227
        },
        "fireAnim_01/fire_59": {
          "x": 80.26,
          "y": -16.35,
          "rotation": -44.63,
          "width": 253,
          "height": 130
        }
      },
      "leaf": {
        "orange/leaf": {
          "type": "mesh",
          "uvs": [
            0, 0, 1, 0, 0, 1, 1, 1, 0.81255, 0.72102, 0.83166, 0.62614, 0.86525,
            0.54034, 0.88282, 0.44545, 0.9166, 0.33295, 0.97066, 0.24716, 1,
            0.35057, 1, 0.48864, 0.96332, 0.48864, 0.91216, 0.56136, 0.87838,
            0.67784, 0.85946, 0.79432, 0.86815, 0.89773, 0.84189, 0.92784,
            0.80676, 0.88466, 0.78185, 0.79886, 0.77896, 0.7125, 0.8112, 0.5142,
            0.76873, 0.63466, 0.71004, 0.75966, 0.59286, 0.85057, 0.46255,
            0.92386, 0.34402, 1, 0.23417, 1, 0.14035, 0.91477, 0.06853, 0.91932,
            0.02471, 0.84602, 0.08475, 0.59148, 0.14189, 0.44943, 0.21216,
            0.30739, 0.28687, 0.1733, 0.36139, 0.10909, 0.46255, 0, 0.55772, 0,
            0.65869, 0.10455, 0.72452, 0.19943, 0.78166, 0.31591
          ],
          "triangles": [
            18, 24, 17, 16, 17, 3, 13, 14, 3, 14, 16, 3, 12, 13, 3, 9, 12, 10,
            8, 9, 1, 9, 10, 1, 10, 12, 11, 12, 3, 11, 15, 16, 14, 8, 12, 9, 8,
            13, 12, 40, 7, 8, 7, 13, 8, 7, 6, 13, 6, 14, 13, 6, 5, 14, 21, 6, 7,
            5, 15, 14, 5, 4, 15, 15, 17, 16, 21, 5, 6, 18, 17, 15, 4, 18, 15,
            19, 18, 4, 22, 4, 5, 19, 23, 18, 20, 19, 4, 22, 20, 4, 23, 19, 20,
            25, 26, 17, 0, 35, 36, 0, 34, 35, 35, 25, 36, 34, 33, 26, 34, 26,
            35, 35, 26, 25, 33, 27, 26, 28, 2, 27, 33, 32, 27, 29, 2, 28, 32,
            28, 27, 0, 33, 34, 31, 28, 32, 0, 32, 33, 31, 29, 28, 0, 31, 32, 30,
            29, 31, 0, 30, 31, 30, 2, 29, 0, 2, 30, 24, 25, 17, 17, 26, 3, 40,
            8, 1, 39, 40, 1, 37, 38, 1, 38, 39, 1, 40, 21, 7, 23, 24, 18, 21,
            22, 5, 40, 22, 21, 39, 23, 22, 39, 22, 40, 22, 23, 20, 38, 24, 23,
            38, 23, 39, 37, 36, 24, 36, 25, 24, 37, 24, 38
          ],
          "vertices": [
            2, 6, 229.39, -15.87, 0.24781, 7, 103.59, -71.41, 0.75219, 2, 6,
            -27.58, -48.28, 0.86476, 7, -139.41, 18.21, 0.13524, 2, 6, 218.38,
            71.44, 0.02673, 7, 134.04, 11.16, 0.97327, 2, 6, -38.59, 39.03,
            0.87971, 7, -108.96, 100.78, 0.12029, 1, 3, 2.35, 7.22, 1, 1, 3,
            11.86, 9.18, 1, 1, 3, 23.3, 7.84, 1, 1, 3, 32.54, 10.1, 1, 1, 3,
            45.75, 10.3, 1, 1, 3, 60.76, 5.04, 1, 1, 3, 59.15, -6.71, 1, 1, 3,
            50.17, -14.89, 1, 1, 3, 43.77, -7.87, 1, 1, 3, 30.11, -2.39, 1, 1,
            3, 16.65, -2.83, 1, 1, 3, 5.77, -6.11, 1, 1, 3, 0.56, -13.9, 1, 1,
            3, -5.98, -10.66, 1, 1, 3, -9.3, -1.37, 1, 1, 3, -8.07, 8.48, 1, 1,
            3, -2.95, 14.15, 1, 2, 6, 15.28, 2.73, 0.99906, 7, -77.87, 43.75,
            9.4e-4, 2, 6, 24.87, 14.63, 0.96846, 7, -63.88, 49.89, 0.03154, 2,
            6, 38.57, 27.44, 0.87174, 7, -45.82, 54.95, 0.12826, 2, 6, 67.68,
            39.18, 0.6548, 7, -14.57, 51.95, 0.3452, 2, 6, 100.36, 49.8, 0.4639,
            7, 19.32, 46.33, 0.5361, 2, 6, 129.98, 60.29, 0.29518, 7, 50.45,
            41.99, 0.70482, 2, 6, 158.2, 63.85, 0.13187, 7, 77.14, 32.14,
            0.86813, 2, 6, 183.25, 59.45, 0.02851, 7, 97.34, 16.7, 0.97149, 2,
            6, 201.66, 62.17, 0.00862, 7, 114.93, 10.64, 0.99138, 2, 6, 213.72,
            57.19, 0.00469, 7, 123.35, 0.66, 0.99531, 2, 6, 201.1, 33.02,
            0.02165, 7, 101.01, -14.98, 0.97835, 2, 6, 187.98, 18.77, 0.06179,
            7, 82.8, -21.58, 0.93821, 2, 6, 171.49, 4.09, 0.14493, 7, 61.4,
            -27.01, 0.85507, 2, 6, 153.76, -10.04, 0.29258, 7, 39.16, -31.39,
            0.70742, 2, 6, 135.32, -18.06, 0.43164, 7, 19.09, -30.01, 0.56836,
            2, 6, 110.53, -30.86, 0.50046, 7, -8.81, -29.95, 0.49954, 2, 6,
            86.07, -33.95, 0.56204, 7, -31.94, -21.42, 0.43795, 2, 6, 58.98,
            -28.09, 0.78337, 7, -53.29, -3.74, 0.21663, 2, 6, 41.02, -21.94,
            0.90352, 7, -66.39, 9.99, 0.09647, 2, 6, 25.05, -13.62, 0.97224, 7,
            -76.73, 24.73, 0.02776
          ],
          "hull": 10,
          "edges": [
            0, 4, 2, 20, 2, 74, 4, 54, 6, 22, 6, 52, 20, 22, 52, 54, 72, 74, 72,
            0
          ],
          "width": 259,
          "height": 88
        }
      },
      "orange": {
        "orange/orange": { "x": 8, "y": -9.5, "width": 276, "height": 269 }
      },
      "shadow": {
        "orange/shadow": { "x": -20, "y": -45.5, "width": 326, "height": 299 }
      },
      "star1": {
        "star1": {
          "x": -0.29,
          "y": -0.68,
          "rotation": -0.47,
          "width": 161,
          "height": 147
        }
      },
      "star11": {
        "star1": {
          "x": -0.29,
          "y": -0.68,
          "rotation": -0.47,
          "width": 161,
          "height": 147
        }
      }
    }
  },
  "animations": {
    "static": {
      "slots": { "fire": { "attachment": [{ "time": 0, "name": null }] } },
      "bones": {
        "fire": { "translate": [{ "time": 0, "x": 11.18, "y": 30.51 }] },
        "scale": { "scale": [{ "time": 0, "x": 1, "y": 1 }] },
        "leaf": {
          "rotate": [{ "time": 0, "angle": 0 }],
          "shear": [{ "time": 0, "x": 0, "y": 0 }]
        },
        "leaf1": {
          "rotate": [{ "time": 0, "angle": 0 }],
          "shear": [{ "time": 0, "x": 0, "y": 0 }]
        },
        "star1": { "scale": [{ "time": 0, "x": 1, "y": 1 }] },
        "star2": { "scale": [{ "time": 0, "x": 1, "y": 1 }] }
      }
    },
    "win": {
      "slots": {
        "fire": {
          "attachment": [
            { "time": 0, "name": null },
            { "time": 0.0667, "name": "fireAnim_01/fire_03" },
            { "time": 0.1333, "name": "fireAnim_01/fire_05" },
            { "time": 0.2, "name": "fireAnim_01/fire_07" },
            { "time": 0.2667, "name": "fireAnim_01/fire_09" },
            { "time": 0.3333, "name": "fireAnim_01/fire_11" },
            { "time": 0.4, "name": "fireAnim_01/fire_13" },
            { "time": 0.4667, "name": "fireAnim_01/fire_15" },
            { "time": 0.5333, "name": "fireAnim_01/fire_17" },
            { "time": 0.6, "name": "fireAnim_01/fire_19" },
            { "time": 0.667, "name": "fireAnim_01/fire_21" },
            { "time": 0.7337, "name": "fireAnim_01/fire_23" },
            { "time": 0.8004, "name": "fireAnim_01/fire_25" },
            { "time": 0.8671, "name": "fireAnim_01/fire_27" },
            { "time": 0.9338, "name": "fireAnim_01/fire_29" },
            { "time": 1.0005, "name": "fireAnim_01/fire_31" },
            { "time": 1.0672, "name": "fireAnim_01/fire_33" },
            { "time": 1.1339, "name": "fireAnim_01/fire_35" },
            { "time": 1.2006, "name": "fireAnim_01/fire_37" },
            { "time": 1.2673, "name": "fireAnim_01/fire_39" },
            { "time": 1.334, "name": "fireAnim_01/fire_41" },
            { "time": 1.4007, "name": "fireAnim_01/fire_43" },
            { "time": 1.4674, "name": "fireAnim_01/fire_45" },
            { "time": 1.5341, "name": "fireAnim_01/fire_47" },
            { "time": 1.6008, "name": "fireAnim_01/fire_49" },
            { "time": 1.6675, "name": "fireAnim_01/fire_51" },
            { "time": 1.7342, "name": "fireAnim_01/fire_53" },
            { "time": 1.8009, "name": "fireAnim_01/fire_55" },
            { "time": 1.8676, "name": "fireAnim_01/fire_57" },
            { "time": 1.9343, "name": "fireAnim_01/fire_59" },
            { "time": 2.001, "name": null }
          ]
        }
      },
      "bones": {
        "fire": { "translate": [{ "time": 0, "x": 11.18, "y": 30.51 }] },
        "scale": {
          "scale": [
            { "time": 0, "x": 1, "y": 1, "curve": [0.643, 0.02, 0.179, 0.96] },
            {
              "time": 0.8333,
              "x": 1.1,
              "y": 1.1,
              "curve": [1, 0, 0.449, 0.98]
            },
            { "time": 2, "x": 1, "y": 1 }
          ]
        },
        "leaf": {
          "rotate": [
            { "time": 0, "angle": 0, "curve": [0.5, 0, 0.247, 0.96] },
            { "time": 0.6, "angle": -3.98, "curve": [0.5, 0, 0.5, 1] },
            { "time": 1.2667, "angle": 2.75, "curve": [0.5, 0, 0.5, 1] },
            { "time": 2, "angle": 0 }
          ],
          "shear": [
            { "time": 0, "x": 0, "y": 0, "curve": "stepped" },
            { "time": 0.6, "x": 0, "y": 0, "curve": "stepped" },
            { "time": 1.2667, "x": 0, "y": 0, "curve": "stepped" },
            { "time": 2, "x": 0, "y": 0 }
          ]
        },
        "leaf1": {
          "rotate": [
            { "time": 0, "angle": 0, "curve": [0.5, 0, 0.255, 0.96] },
            { "time": 0.7333, "angle": -12.97, "curve": [0.5, 0, 0.5, 1] },
            { "time": 1.4, "angle": 5.95, "curve": [0.5, 0, 0.5, 1] },
            { "time": 2, "angle": 0 }
          ],
          "shear": [
            { "time": 0, "x": 0, "y": 0, "curve": "stepped" },
            { "time": 0.7333, "x": 0, "y": 0, "curve": "stepped" },
            { "time": 1.4, "x": 0, "y": 0, "curve": "stepped" },
            { "time": 2, "x": 0, "y": 0 }
          ]
        },
        "star1": {
          "scale": [
            { "time": 0, "x": 1, "y": 1, "curve": [0.5, 0, 0.213, 0.93] },
            { "time": 0.2, "x": 100, "y": 100, "curve": [0.745, 0.02, 0.5, 1] },
            { "time": 0.4, "x": 1, "y": 1 }
          ]
        },
        "star2": {
          "scale": [
            { "time": 0, "x": 1, "y": 1, "curve": "stepped" },
            { "time": 1.2, "x": 1, "y": 1, "curve": [0.5, 0, 0.213, 0.93] },
            { "time": 1.4, "x": 100, "y": 100, "curve": [0.745, 0.02, 0.5, 1] },
            { "time": 1.6, "x": 1, "y": 1 }
          ]
        }
      }
    }
  }
}
